lat: 0.0,long: 0.0, M: 0,D: 0,H: 0,m: 0,s: 0, num steps: 0
lat: 0.0,long: 0.0, M: 0,D: 0,H: 0,m: 0,s: 0, num steps: 0
lat: 0.0,long: 0.0, M: 0,D: 0,H: 0,m: 0,s: 0, num steps: 0
lat: 0.0,long: 0.0, M: 0,D: 0,H: 0,m: 0,s: 0, num steps: 0
lat: 0.0,long: 0.0, M: 0,D: 0,H: 0,m: 0,s: 0, num steps: 0
lat: 0.0,long: 0.0, M: 0,D: 0,H: 0,m: 0,s: 0, num steps: 0
lat: 0.0,long: 0.0, M: 0,D: 0,H: 0,m: 0,s: 0, num steps: 0
lat: 0.0,long: 0.0, M: 0,D: 0,H: 0,m: 0,s: 0, num steps: 0
lat: 0.0,long: 0.0, M: 0,D: 0,H: 0,m: 0,s: 0, num steps: 0
lat: 0.0,long: 0.0, M: 0,D: 0,H: 0,m: 0,s: 0, num steps: 0
lat: 0.0,long: 0.0, M: 0,D: 0,H: 0,m: 0,s: 0, num steps: 0
lat: 0.0,long: 0.0, M: 0,D: 0,H: 0,m: 0,s: 0, num steps: 0
lat: 0.0,long: 0.0, M: 0,D: 0,H: 0,m: 0,s: 0, num steps: 0
lat: 0.0,long: 0.0, M: 0,D: 0,H: 0,m: 0,s: 0, num steps: 0
lat: 0.0,long: 0.0, M: 0,D: 0,H: 0,m: 0,s: 0, num steps: 0
lat: 0.0,long: 0.0, M: 0,D: 0,H: 0,m: 0,s: 0, num steps: 0
lat: 0.0,long: 0.0, M: 0,D: 0,H: 0,m: 0,s: 0, num steps: 0
lat: 0.0,long: 0.0, M: 0,D: 0,H: 0,m: 0,s: 0, num steps: 0
lat: 0.0,long: 0.0, M: 0,D: 0,H: 0,m: 0,s: 0, num steps: 0
lat: 0.0,long: 0.0, M: 0,D: 0,H: 0,m: 0,s: 0, num steps: 0

lat: 0.0,long: 0.0, M: 0,D: 0,H: 0,m: 0,s: 0, num steps: 0
lat: 0.0,long: 0.0, M: 0,D: 0,H: 0,m: 0,s: 0, num steps: 0
lat: 0.0,long: 0.0, M: 0,D: 0,H: 0,m: 0,s: 0, num steps: 0
lat: 0.0,long: 0.0, M: 0,D: 0,H: 0,m: 0,s: 0, num steps: 0
lat: 0.0,long: 0.0, M: 0,D: 0,H: 0,m: 0,s: 0, num steps: 0
lat: 0.0,long: 0.0, M: 0,D: 0,H: 0,m: 0,s: 0, num steps: 0
lat: 0.0,long: 0.0, M: 0,D: 0,H: 0,m: 0,s: 0, num steps: 0
lat: 0.0,long: 0.0, M: 0,D: 0,H: 0,m: 0,s: 0, num steps: 1
lat: 0.0,long: 0.0, M: 0,D: 0,H: 0,m: 0,s: 0, num steps: 0
lat: 0.0,long: 0.0, M: 0,D: 0,H: 0,m: 0,s: 0, num steps: 0
lat: 0.0,long: 0.0, M: 0,D: 0,H: 0,m: 0,s: 0, num steps: 0
lat: 0.0,long: 0.0, M: 0,D: 0,H: 0,m: 0,s: 0, num steps: 0
lat: 0.0,long: 0.0, M: 0,D: 0,H: 0,m: 0,s: 0, num steps: 0
lat: 0.0,long: 0.0, M: 0,D: 0,H: 0,m: 0,s: 0, num steps: 0
lat: 0.0,long: 0.0, M: 0,D: 0,H: 0,m: 0,s: 0, num steps: 0
lat: 0.0,long: 0.0, M: 0,D: 0,H: 0,m: 0,s: 0, num steps: 0
lat: 0.0,long: 0.0, M: 0,D: 0,H: 0,m: 0,s: 0, num steps: 0
lat: 0.0,long: 0.0, M: 0,D: 0,H: 0,m: 0,s: 0, num steps: 0
lat: 0.0,long: 0.0, M: 0,D: 0,H: 0,m: 0,s: 0, num steps: 0
lat: 0.0,long: 0.0, M: 0,D: 0,H: 0,m: 0,s: 0, num steps: 0

lat: 0.0,long: 0.0, M: 0,D: 0,H: 0,m: 0,s: 0, num steps: 0
lat: 0.0,long: 0.0, M: 0,D: 0,H: 0,m: 0,s: 0, num steps: 0
lat: 0.0,long: 0.0, M: 0,D: 0,H: 0,m: 0,s: 0, num steps: 0
lat: 0.0,long: 0.0, M: 0,D: 0,H: 0,m: 0,s: 0, num steps: 0
lat: 0.0,long: 0.0, M: 0,D: 0,H: 0,m: 0,s: 0, num steps: 0
lat: 0.0,long: 0.0, M: 0,D: 0,H: 0,m: 0,s: 0, num steps: 0
lat: 0.0,long: 0.0, M: 0,D: 0,H: 0,m: 0,s: 0, num steps: 0
lat: 0.0,long: 0.0, M: 0,D: 0,H: 0,m: 0,s: 0, num steps: 0
lat: 0.0,long: 0.0, M: 0,D: 0,H: 0,m: 0,s: 0, num steps: 0
lat: 0.0,long: 0.0, M: 0,D: 0,H: 0,m: 0,s: 0, num steps: 0
lat: 0.0,long: 0.0, M: 0,D: 0,H: 0,m: 0,s: 0, num steps: 0
lat: 0.0,long: 0.0, M: 0,D: 0,H: 0,m: 0,s: 0, num steps: 0
lat: 0.0,long: 0.0, M: 0,D: 0,H: 0,m: 0,s: 0, num steps: 0
lat: 0.0,long: 0.0, M: 0,D: 0,H: 0,m: 0,s: 0, num steps: 0
lat: 0.0,long: 0.0, M: 0,D: 0,H: 0,m: 0,s: 0, num steps: 0
lat: 0.0,long: 0.0, M: 0,D: 0,H: 0,m: 0,s: 0, num steps: 0
lat: 0.0,long: 0.0, M: 0,D: 0,H: 0,m: 0,s: 0, num steps: 0
lat: 0.0,long: 0.0, M: 0,D: 0,H: 0,m: 0,s: 0, num steps: 0
lat: 0.0,long: 0.0, M: 0,D: 0,H: 0,m: 0,s: 0, num steps: 0
lat: 0.0,long: 0.0, M: 0,D: 0,H: 0,m: 0,s: 0, num steps: 0

lat: 0.0,long: 0.0, M: 0,D: 0,H: 0,m: 0,s: 0, num steps: 1
lat: 0.0,long: 0.0, M: 0,D: 0,H: 0,m: 0,s: 0, num steps: 1
lat: 0.0,long: 0.0, M: 0,D: 0,H: 0,m: 0,s: 0, num steps: 0
lat: 0.0,long: 0.0, M: 0,D: 0,H: 0,m: 0,s: 0, num steps: 0
lat: 0.0,long: 0.0, M: 0,D: 0,H: 0,m: 0,s: 0, num steps: 1
lat: 0.0,long: 0.0, M: 0,D: 0,H: 0,m: 0,s: 0, num steps: 0
lat: 0.0,long: 0.0, M: 0,D: 0,H: 0,m: 0,s: 0, num steps: 0
lat: 0.0,long: 0.0, M: 0,D: 0,H: 0,m: 0,s: 0, num steps: 1
lat: 0.0,long: 0.0, M: 0,D: 0,H: 0,m: 0,s: 0, num steps: 0
lat: 0.0,long: 0.0, M: 0,D: 0,H: 0,m: 0,s: 0, num steps: 0
lat: 0.0,long: 0.0, M: 0,D: 0,H: 0,m: 0,s: 0, num steps: 0
lat: 0.0,long: 0.0, M: 0,D: 0,H: 0,m: 0,s: 0, num steps: 0
lat: 0.0,long: 0.0, M: 0,D: 0,H: 0,m: 0,s: 0, num steps: 0
lat: 0.0,long: 0.0, M: 0,D: 0,H: 0,m: 0,s: 0, num steps: 0
lat: 0.0,long: 0.0, M: 0,D: 0,H: 0,m: 0,s: 0, num steps: 0
lat: 0.0,long: 0.0, M: 0,D: 0,H: 0,m: 0,s: 0, num steps: 0
lat: 0.0,long: 0.0, M: 0,D: 0,H: 0,m: 0,s: 0, num steps: 0
lat: 0.0,long: 0.0, M: 0,D: 0,H: 0,m: 0,s: 0, num steps: 0
lat: 0.0,long: 0.0, M: 0,D: 0,H: 0,m: 0,s: 0, num steps: 0
lat: 0.0,long: 0.0, M: 0,D: 0,H: 0,m: 0,s: 0, num steps: 0

lat: 0.0,long: 0.0, M: 0,D: 0,H: 0,m: 0,s: 0, num steps: 0
lat: 0.0,long: 0.0, M: 0,D: 0,H: 0,m: 0,s: 0, num steps: 0
lat: 0.0,long: 0.0, M: 0,D: 0,H: 0,m: 0,s: 0, num steps: 0
lat: 0.0,long: 0.0, M: 0,D: 0,H: 0,m: 0,s: 0, num steps: 0
lat: 0.0,long: 0.0, M: 0,D: 0,H: 0,m: 0,s: 0, num steps: 0
lat: 0.0,long: 0.0, M: 0,D: 0,H: 0,m: 0,s: 0, num steps: 0
lat: 0.0,long: 0.0, M: 0,D: 0,H: 0,m: 0,s: 0, num steps: 0
lat: 0.0,long: 0.0, M: 0,D: 0,H: 0,m: 0,s: 0, num steps: 1
lat: 0.0,long: 0.0, M: 0,D: 0,H: 0,m: 0,s: 0, num steps: 0
lat: 0.0,long: 0.0, M: 0,D: 0,H: 0,m: 0,s: 0, num steps: 0
lat: 0.0,long: 0.0, M: 0,D: 0,H: 0,m: 0,s: 0, num steps: 0
lat: 0.0,long: 0.0, M: 0,D: 0,H: 0,m: 0,s: 0, num steps: 0
lat: 0.0,long: 0.0, M: 0,D: 0,H: 0,m: 0,s: 0, num steps: 0
lat: 0.0,long: 0.0, M: 0,D: 0,H: 0,m: 0,s: 0, num steps: 0
lat: 0.0,long: 0.0, M: 0,D: 0,H: 0,m: 0,s: 0, num steps: 0
lat: 0.0,long: 0.0, M: 0,D: 0,H: 0,m: 0,s: 0, num steps: 0
lat: 0.0,long: 0.0, M: 0,D: 0,H: 0,m: 0,s: 0, num steps: 0
lat: 0.0,long: 0.0, M: 0,D: 0,H: 0,m: 0,s: 0, num steps: 0
lat: 0.0,long: 0.0, M: 0,D: 0,H: 0,m: 0,s: 0, num steps: 0
lat: 0.0,long: 0.0, M: 0,D: 0,H: 0,m: 0,s: 0, num steps: 0

lat: 0.0,long: 0.0, M: 0,D: 0,H: 0,m: 0,s: 0, num steps: 0
lat: 0.0,long: 0.0, M: 0,D: 0,H: 0,m: 0,s: 0, num steps: 0
lat: 0.0,long: 0.0, M: 0,D: 0,H: 0,m: 0,s: 0, num steps: 0
lat: 0.0,long: 0.0, M: 0,D: 0,H: 0,m: 0,s: 0, num steps: 0
lat: 0.0,long: 0.0, M: 0,D: 0,H: 0,m: 0,s: 0, num steps: 0
lat: 0.0,long: 0.0, M: 0,D: 0,H: 0,m: 0,s: 0, num steps: 0
lat: 0.0,long: 0.0, M: 0,D: 0,H: 0,m: 0,s: 0, num steps: 0
lat: 0.0,long: 0.0, M: 0,D: 0,H: 0,m: 0,s: 0, num steps: 1
lat: 0.0,long: 0.0, M: 0,D: 0,H: 0,m: 0,s: 0, num steps: 0
lat: 0.0,long: 0.0, M: 0,D: 0,H: 0,m: 0,s: 0, num steps: 0
lat: 0.0,long: 0.0, M: 0,D: 0,H: 0,m: 0,s: 0, num steps: 0
lat: 0.0,long: 0.0, M: 0,D: 0,H: 0,m: 0,s: 0, num steps: 0
lat: 0.0,long: 0.0, M: 0,D: 0,H: 0,m: 0,s: 0, num steps: 0
lat: 0.0,long: 0.0, M: 0,D: 0,H: 0,m: 0,s: 0, num steps: 0
lat: 0.0,long: 0.0, M: 0,D: 0,H: 0,m: 0,s: 0, num steps: 0
lat: 0.0,long: 0.0, M: 0,D: 0,H: 0,m: 0,s: 0, num steps: 0
lat: 0.0,long: 0.0, M: 0,D: 0,H: 0,m: 0,s: 0, num steps: 0
lat: 0.0,long: 0.0, M: 0,D: 0,H: 0,m: 0,s: 0, num steps: 0
lat: 0.0,long: 0.0, M: 0,D: 0,H: 0,m: 0,s: 0, num steps: 0
lat: 0.0,long: 0.0, M: 0,D: 0,H: 0,m: 0,s: 0, num steps: 0

lat: 0.0,long: 0.0, M: 0,D: 0,H: 0,m: 0,s: 0, num steps: 0
lat: 0.0,long: 0.0, M: 0,D: 0,H: 0,m: 0,s: 0, num steps: 0
lat: 0.0,long: 0.0, M: 0,D: 0,H: 0,m: 0,s: 0, num steps: 0
lat: 0.0,long: 0.0, M: 0,D: 0,H: 0,m: 0,s: 0, num steps: 0
lat: 0.0,long: 0.0, M: 0,D: 0,H: 0,m: 0,s: 0, num steps: 1
lat: 0.0,long: 0.0, M: 0,D: 0,H: 0,m: 0,s: 0, num steps: 0
lat: 0.0,long: 0.0, M: 0,D: 0,H: 0,m: 0,s: 0, num steps: 0
lat: 0.0,long: 0.0, M: 0,D: 0,H: 0,m: 0,s: 0, num steps: 1
lat: 0.0,long: 0.0, M: 0,D: 0,H: 0,m: 0,s: 0, num steps: 0
lat: 0.0,long: 0.0, M: 0,D: 0,H: 0,m: 0,s: 0, num steps: 0
lat: 0.0,long: 0.0, M: 0,D: 0,H: 0,m: 0,s: 0, num steps: 0
lat: 0.0,long: 0.0, M: 0,D: 0,H: 0,m: 0,s: 0, num steps: 0
lat: 0.0,long: 0.0, M: 0,D: 0,H: 0,m: 0,s: 0, num steps: 0
lat: 0.0,long: 0.0, M: 0,D: 0,H: 0,m: 0,s: 0, num steps: 0
lat: 0.0,long: 0.0, M: 0,D: 0,H: 0,m: 0,s: 0, num steps: 0
lat: 0.0,long: 0.0, M: 0,D: 0,H: 0,m: 0,s: 0, num steps: 0
lat: 0.0,long: 0.0, M: 0,D: 0,H: 0,m: 0,s: 0, num steps: 0
lat: 0.0,long: 0.0, M: 0,D: 0,H: 0,m: 0,s: 0, num steps: 0
lat: 0.0,long: 0.0, M: 0,D: 0,H: 0,m: 0,s: 0, num steps: 0
lat: 0.0,long: 0.0, M: 0,D: 0,H: 0,m: 0,s: 0, num steps: 0

lat: 0.0,long: 0.0, M: 0,D: 0,H: 0,m: 0,s: 0, num steps: 0
lat: 0.0,long: 0.0, M: 0,D: 0,H: 0,m: 0,s: 0, num steps: 0
lat: 0.0,long: 0.0, M: 0,D: 0,H: 0,m: 0,s: 0, num steps: 0
lat: 0.0,long: 0.0, M: 0,D: 0,H: 0,m: 0,s: 0, num steps: 0
lat: 0.0,long: 0.0, M: 0,D: 0,H: 0,m: 0,s: 0, num steps: 0
lat: 0.0,long: 0.0, M: 0,D: 0,H: 0,m: 0,s: 0, num steps: 0
lat: 0.0,long: 0.0, M: 0,D: 0,H: 0,m: 0,s: 0, num steps: 0
lat: 0.0,long: 0.0, M: 0,D: 0,H: 0,m: 0,s: 0, num steps: 1
lat: 0.0,long: 0.0, M: 0,D: 0,H: 0,m: 0,s: 0, num steps: 0
lat: 0.0,long: 0.0, M: 0,D: 0,H: 0,m: 0,s: 0, num steps: 0
lat: 0.0,long: 0.0, M: 0,D: 0,H: 0,m: 0,s: 0, num steps: 0
lat: 0.0,long: 0.0, M: 0,D: 0,H: 0,m: 0,s: 0, num steps: 0
lat: 0.0,long: 0.0, M: 0,D: 0,H: 0,m: 0,s: 0, num steps: 0
lat: 0.0,long: 0.0, M: 0,D: 0,H: 0,m: 0,s: 0, num steps: 0
lat: 0.0,long: 0.0, M: 0,D: 0,H: 0,m: 0,s: 0, num steps: 0
lat: 0.0,long: 0.0, M: 0,D: 0,H: 0,m: 0,s: 0, num steps: 0
lat: 0.0,long: 0.0, M: 0,D: 0,H: 0,m: 0,s: 0, num steps: 0
lat: 0.0,long: 0.0, M: 0,D: 0,H: 0,m: 0,s: 0, num steps: 0
lat: 0.0,long: 0.0, M: 0,D: 0,H: 0,m: 0,s: 0, num steps: 0
lat: 0.0,long: 0.0, M: 0,D: 0,H: 0,m: 0,s: 0, num steps: 0

lat: 0.0,long: 0.0, M: 0,D: 0,H: 0,m: 0,s: 0, num steps: 0
lat: 0.0,long: 0.0, M: 0,D: 0,H: 0,m: 0,s: 0, num steps: 0
lat: 0.0,long: 0.0, M: 0,D: 0,H: 0,m: 0,s: 0, num steps: 0
lat: 0.0,long: 0.0, M: 0,D: 0,H: 0,m: 0,s: 0, num steps: 0
lat: 0.0,long: 0.0, M: 0,D: 0,H: 0,m: 0,s: 0, num steps: 0
lat: 0.0,long: 0.0, M: 0,D: 0,H: 0,m: 0,s: 0, num steps: 0
lat: 0.0,long: 0.0, M: 0,D: 0,H: 0,m: 0,s: 0, num steps: 0
lat: 0.0,long: 0.0, M: 0,D: 0,H: 0,m: 0,s: 0, num steps: 1
lat: 0.0,long: 0.0, M: 0,D: 0,H: 0,m: 0,s: 0, num steps: 0
lat: 0.0,long: 0.0, M: 0,D: 0,H: 0,m: 0,s: 0, num steps: 0
lat: 0.0,long: 0.0, M: 0,D: 0,H: 0,m: 0,s: 0, num steps: 0
lat: 0.0,long: 0.0, M: 0,D: 0,H: 0,m: 0,s: 0, num steps: 0
lat: 0.0,long: 0.0, M: 0,D: 0,H: 0,m: 0,s: 0, num steps: 0
lat: 0.0,long: 0.0, M: 0,D: 0,H: 0,m: 0,s: 0, num steps: 0
lat: 0.0,long: 0.0, M: 0,D: 0,H: 0,m: 0,s: 0, num steps: 0
lat: 0.0,long: 0.0, M: 0,D: 0,H: 0,m: 0,s: 0, num steps: 0
lat: 0.0,long: 0.0, M: 0,D: 0,H: 0,m: 0,s: 0, num steps: 0
lat: 0.0,long: 0.0, M: 0,D: 0,H: 0,m: 0,s: 0, num steps: 0
lat: 0.0,long: 0.0, M: 0,D: 0,H: 0,m: 0,s: 0, num steps: 0
lat: 0.0,long: 0.0, M: 0,D: 0,H: 0,m: 0,s: 0, num steps: 0

lat: 0.0,long: 0.0, M: 0,D: 0,H: 0,m: 0,s: 0, num steps: 0
lat: 0.0,long: 0.0, M: 0,D: 0,H: 0,m: 0,s: 0, num steps: 0
lat: 0.0,long: 0.0, M: 0,D: 0,H: 0,m: 0,s: 0, num steps: 0
lat: 0.0,long: 0.0, M: 0,D: 0,H: 0,m: 0,s: 0, num steps: 0
lat: 0.0,long: 0.0, M: 0,D: 0,H: 0,m: 0,s: 0, num steps: 0
lat: 0.0,long: 0.0, M: 0,D: 0,H: 0,m: 0,s: 0, num steps: 0
lat: 0.0,long: 0.0, M: 0,D: 0,H: 0,m: 0,s: 0, num steps: 0
lat: 0.0,long: 0.0, M: 0,D: 0,H: 0,m: 0,s: 0, num steps: 0
lat: 0.0,long: 0.0, M: 0,D: 0,H: 0,m: 0,s: 0, num steps: 0
lat: 0.0,long: 0.0, M: 0,D: 0,H: 0,m: 0,s: 0, num steps: 0
lat: 0.0,long: 0.0, M: 0,D: 0,H: 0,m: 0,s: 0, num steps: 0
lat: 0.0,long: 0.0, M: 0,D: 0,H: 0,m: 0,s: 0, num steps: 0
lat: 0.0,long: 0.0, M: 0,D: 0,H: 0,m: 0,s: 0, num steps: 0
lat: 0.0,long: 0.0, M: 0,D: 0,H: 0,m: 0,s: 0, num steps: 0
lat: 0.0,long: 0.0, M: 0,D: 0,H: 0,m: 0,s: 0, num steps: 0
lat: 0.0,long: 0.0, M: 0,D: 0,H: 0,m: 0,s: 0, num steps: 0
lat: 0.0,long: 0.0, M: 0,D: 0,H: 0,m: 0,s: 0, num steps: 0
lat: 0.0,long: 0.0, M: 0,D: 0,H: 0,m: 0,s: 0, num steps: 0
lat: 0.0,long: 0.0, M: 0,D: 0,H: 0,m: 0,s: 0, num steps: 0
lat: 0.0,long: 0.0, M: 0,D: 0,H: 0,m: 0,s: 0, num steps: 0

lat: 0.0,long: 0.0, M: 0,D: 0,H: 0,m: 0,s: 0, num steps: 0
lat: 0.0,long: 0.0, M: 0,D: 0,H: 0,m: 0,s: 0, num steps: 0
lat: 0.0,long: 0.0, M: 0,D: 0,H: 0,m: 0,s: 0, num steps: 0
lat: 0.0,long: 0.0, M: 0,D: 0,H: 0,m: 0,s: 0, num steps: 0
lat: 0.0,long: 0.0, M: 0,D: 0,H: 0,m: 0,s: 0, num steps: 0
lat: 0.0,long: 0.0, M: 0,D: 0,H: 0,m: 0,s: 0, num steps: 0
lat: 0.0,long: 0.0, M: 0,D: 0,H: 0,m: 0,s: 0, num steps: 0
lat: 0.0,long: 0.0, M: 0,D: 0,H: 0,m: 0,s: 0, num steps: 1
lat: 0.0,long: 0.0, M: 0,D: 0,H: 0,m: 0,s: 0, num steps: 0
lat: 0.0,long: 0.0, M: 0,D: 0,H: 0,m: 0,s: 0, num steps: 0
lat: 0.0,long: 0.0, M: 0,D: 0,H: 0,m: 0,s: 0, num steps: 0
lat: 0.0,long: 0.0, M: 0,D: 0,H: 0,m: 0,s: 0, num steps: 0
lat: 0.0,long: 0.0, M: 0,D: 0,H: 0,m: 0,s: 0, num steps: 0
lat: 0.0,long: 0.0, M: 0,D: 0,H: 0,m: 0,s: 0, num steps: 0
lat: 0.0,long: 0.0, M: 0,D: 0,H: 0,m: 0,s: 0, num steps: 0
lat: 0.0,long: 0.0, M: 0,D: 0,H: 0,m: 0,s: 0, num steps: 0
lat: 0.0,long: 0.0, M: 0,D: 0,H: 0,m: 0,s: 0, num steps: 0
lat: 0.0,long: 0.0, M: 0,D: 0,H: 0,m: 0,s: 0, num steps: 0
lat: 0.0,long: 0.0, M: 0,D: 0,H: 0,m: 0,s: 0, num steps: 0
lat: 0.0,long: 0.0, M: 0,D: 0,H: 0,m: 0,s: 0, num steps: 0

lat: 0.0,long: 0.0, M: 0,D: 0,H: 0,m: 0,s: 0, num steps: 0
lat: 0.0,long: 0.0, M: 0,D: 0,H: 0,m: 0,s: 0, num steps: 0
lat: 0.0,long: 0.0, M: 0,D: 0,H: 0,m: 0,s: 0, num steps: 0
lat: 0.0,long: 0.0, M: 0,D: 0,H: 0,m: 0,s: 0, num steps: 0
lat: 0.0,long: 0.0, M: 0,D: 0,H: 0,m: 0,s: 0, num steps: 0
lat: 0.0,long: 0.0, M: 0,D: 0,H: 0,m: 0,s: 0, num steps: 0
lat: 0.0,long: 0.0, M: 0,D: 0,H: 0,m: 0,s: 0, num steps: 0
lat: 0.0,long: 0.0, M: 0,D: 0,H: 0,m: 0,s: 0, num steps: 1
lat: 0.0,long: 0.0, M: 0,D: 0,H: 0,m: 0,s: 0, num steps: 0
lat: 0.0,long: 0.0, M: 0,D: 0,H: 0,m: 0,s: 0, num steps: 0
lat: 0.0,long: 0.0, M: 0,D: 0,H: 0,m: 0,s: 0, num steps: 0
lat: 0.0,long: 0.0, M: 0,D: 0,H: 0,m: 0,s: 0, num steps: 0
lat: 0.0,long: 0.0, M: 0,D: 0,H: 0,m: 0,s: 0, num steps: 0
lat: 0.0,long: 0.0, M: 0,D: 0,H: 0,m: 0,s: 0, num steps: 0
lat: 0.0,long: 0.0, M: 0,D: 0,H: 0,m: 0,s: 0, num steps: 0
lat: 0.0,long: 0.0, M: 0,D: 0,H: 0,m: 0,s: 0, num steps: 0
lat: 0.0,long: 0.0, M: 0,D: 0,H: 0,m: 0,s: 0, num steps: 0
lat: 0.0,long: 0.0, M: 0,D: 0,H: 0,m: 0,s: 0, num steps: 0
lat: 0.0,long: 0.0, M: 0,D: 0,H: 0,m: 0,s: 0, num steps: 0
lat: 0.0,long: 0.0, M: 0,D: 0,H: 0,m: 0,s: 0, num steps: 0

lat: 0.0,long: 0.0, M: 0,D: 0,H: 0,m: 0,s: 0, num steps: 0
lat: 0.0,long: 0.0, M: 0,D: 0,H: 0,m: 0,s: 0, num steps: 1
lat: 0.0,long: 0.0, M: 0,D: 0,H: 0,m: 0,s: 0, num steps: 0
lat: 0.0,long: 0.0, M: 0,D: 0,H: 0,m: 0,s: 0, num steps: 1
lat: 0.0,long: 0.0, M: 0,D: 0,H: 0,m: 0,s: 0, num steps: 0
lat: 0.0,long: 0.0, M: 0,D: 0,H: 0,m: 0,s: 0, num steps: 0
lat: 0.0,long: 0.0, M: 0,D: 0,H: 0,m: 0,s: 0, num steps: 0
lat: 0.0,long: 0.0, M: 0,D: 0,H: 0,m: 0,s: 0, num steps: 0
lat: 0.0,long: 0.0, M: 0,D: 0,H: 0,m: 0,s: 0, num steps: 0
lat: 0.0,long: 0.0, M: 0,D: 0,H: 0,m: 0,s: 0, num steps: 0
lat: 0.0,long: 0.0, M: 0,D: 0,H: 0,m: 0,s: 0, num steps: 0
lat: 0.0,long: 0.0, M: 0,D: 0,H: 0,m: 0,s: 0, num steps: 0
lat: 0.0,long: 0.0, M: 0,D: 0,H: 0,m: 0,s: 0, num steps: 0
lat: 0.0,long: 0.0, M: 0,D: 0,H: 0,m: 0,s: 0, num steps: 0
lat: 0.0,long: 0.0, M: 0,D: 0,H: 0,m: 0,s: 0, num steps: 0
lat: 0.0,long: 0.0, M: 0,D: 0,H: 0,m: 0,s: 0, num steps: 0
lat: 0.0,long: 0.0, M: 0,D: 0,H: 0,m: 0,s: 0, num steps: 0
lat: 0.0,long: 0.0, M: 0,D: 0,H: 0,m: 0,s: 0, num steps: 0
lat: 0.0,long: 0.0, M: 0,D: 0,H: 0,m: 0,s: 0, num steps: 0
lat: 0.0,long: 0.0, M: 0,D: 0,H: 0,m: 0,s: 0, num steps: 0

lat: 0.0,long: 0.0, M: 0,D: 0,H: 0,m: 0,s: 0, num steps: 0
lat: 0.0,long: 0.0, M: 0,D: 0,H: 0,m: 0,s: 0, num steps: 0
lat: 0.0,long: 0.0, M: 0,D: 0,H: 0,m: 0,s: 0, num steps: 0
lat: 0.0,long: 0.0, M: 0,D: 0,H: 0,m: 0,s: 0, num steps: 0
lat: 0.0,long: 0.0, M: 0,D: 0,H: 0,m: 0,s: 0, num steps: 0
lat: 0.0,long: 0.0, M: 0,D: 0,H: 0,m: 0,s: 0, num steps: 0
lat: 0.0,long: 0.0, M: 0,D: 0,H: 0,m: 0,s: 0, num steps: 0
lat: 0.0,long: 0.0, M: 0,D: 0,H: 0,m: 0,s: 0, num steps: 0
lat: 0.0,long: 0.0, M: 0,D: 0,H: 0,m: 0,s: 0, num steps: 1
lat: 0.0,long: 0.0, M: 0,D: 0,H: 0,m: 0,s: 0, num steps: 0
lat: 0.0,long: 0.0, M: 0,D: 0,H: 0,m: 0,s: 0, num steps: 0
lat: 0.0,long: 0.0, M: 0,D: 0,H: 0,m: 0,s: 0, num steps: 0
lat: 0.0,long: 0.0, M: 0,D: 0,H: 0,m: 0,s: 0, num steps: 0
lat: 0.0,long: 0.0, M: 0,D: 0,H: 0,m: 0,s: 0, num steps: 0
lat: 0.0,long: 0.0, M: 0,D: 0,H: 0,m: 0,s: 0, num steps: 0
lat: 0.0,long: 0.0, M: 0,D: 0,H: 0,m: 0,s: 0, num steps: 0
lat: 0.0,long: 0.0, M: 0,D: 0,H: 0,m: 0,s: 0, num steps: 0
lat: 0.0,long: 0.0, M: 0,D: 0,H: 0,m: 0,s: 0, num steps: 0
lat: 0.0,long: 0.0, M: 0,D: 0,H: 0,m: 0,s: 0, num steps: 0
lat: 0.0,long: 0.0, M: 0,D: 0,H: 0,m: 0,s: 0, num steps: 0

lat: 0.0,long: 0.0, M: 0,D: 0,H: 0,m: 0,s: 0, num steps: 0
lat: 0.0,long: 0.0, M: 0,D: 0,H: 0,m: 0,s: 0, num steps: 0
lat: 0.0,long: 0.0, M: 0,D: 0,H: 0,m: 0,s: 0, num steps: 0
lat: 0.0,long: 0.0, M: 0,D: 0,H: 0,m: 0,s: 0, num steps: 0
lat: 0.0,long: 0.0, M: 0,D: 0,H: 0,m: 0,s: 0, num steps: 0
lat: 0.0,long: 0.0, M: 0,D: 0,H: 0,m: 0,s: 0, num steps: 0
lat: 0.0,long: 0.0, M: 0,D: 0,H: 0,m: 0,s: 0, num steps: 0
lat: 0.0,long: 0.0, M: 0,D: 0,H: 0,m: 0,s: 0, num steps: 0
lat: 0.0,long: 0.0, M: 0,D: 0,H: 0,m: 0,s: 0, num steps: 0
lat: 0.0,long: 0.0, M: 0,D: 0,H: 0,m: 0,s: 0, num steps: 0
lat: 0.0,long: 0.0, M: 0,D: 0,H: 0,m: 0,s: 0, num steps: 0
lat: 0.0,long: 0.0, M: 0,D: 0,H: 0,m: 0,s: 0, num steps: 0
lat: 0.0,long: 0.0, M: 0,D: 0,H: 0,m: 0,s: 0, num steps: 0
lat: 0.0,long: 0.0, M: 0,D: 0,H: 0,m: 0,s: 0, num steps: 0
lat: 0.0,long: 0.0, M: 0,D: 0,H: 0,m: 0,s: 0, num steps: 0
lat: 0.0,long: 0.0, M: 0,D: 0,H: 0,m: 0,s: 0, num steps: 0
lat: 0.0,long: 0.0, M: 0,D: 0,H: 0,m: 0,s: 0, num steps: 0
lat: 0.0,long: 0.0, M: 0,D: 0,H: 0,m: 0,s: 0, num steps: 0
lat: 0.0,long: 0.0, M: 0,D: 0,H: 0,m: 0,s: 0, num steps: 0
lat: 0.0,long: 0.0, M: 0,D: 0,H: 0,m: 0,s: 0, num steps: 0

lat: 0.0,long: 0.0, M: 0,D: 0,H: 0,m: 0,s: 0, num steps: 0
lat: 0.0,long: 0.0, M: 0,D: 0,H: 0,m: 0,s: 0, num steps: 0
lat: 0.0,long: 0.0, M: 0,D: 0,H: 0,m: 0,s: 0, num steps: 0
lat: 0.0,long: 0.0, M: 0,D: 0,H: 0,m: 0,s: 0, num steps: 0
lat: 0.0,long: 0.0, M: 0,D: 0,H: 0,m: 0,s: 0, num steps: 0
lat: 0.0,long: 0.0, M: 0,D: 0,H: 0,m: 0,s: 0, num steps: 0
lat: 0.0,long: 0.0, M: 0,D: 0,H: 0,m: 0,s: 0, num steps: 0
lat: 0.0,long: 0.0, M: 0,D: 0,H: 0,m: 0,s: 0, num steps: 0
lat: 0.0,long: 0.0, M: 0,D: 0,H: 0,m: 0,s: 0, num steps: 0
lat: 0.0,long: 0.0, M: 0,D: 0,H: 0,m: 0,s: 0, num steps: 0
lat: 0.0,long: 0.0, M: 0,D: 0,H: 0,m: 0,s: 0, num steps: 0
lat: 0.0,long: 0.0, M: 0,D: 0,H: 0,m: 0,s: 0, num steps: 0
lat: 0.0,long: 0.0, M: 0,D: 0,H: 0,m: 0,s: 0, num steps: 0
lat: 0.0,long: 0.0, M: 0,D: 0,H: 0,m: 0,s: 0, num steps: 0
lat: 0.0,long: 0.0, M: 0,D: 0,H: 0,m: 0,s: 0, num steps: 0
lat: 0.0,long: 0.0, M: 0,D: 0,H: 0,m: 0,s: 0, num steps: 0
lat: 0.0,long: 0.0, M: 0,D: 0,H: 0,m: 0,s: 0, num steps: 0
lat: 0.0,long: 0.0, M: 0,D: 0,H: 0,m: 0,s: 0, num steps: 0
lat: 0.0,long: 0.0, M: 0,D: 0,H: 0,m: 0,s: 0, num steps: 0
lat: 0.0,long: 0.0, M: 0,D: 0,H: 0,m: 0,s: 0, num steps: 0

lat: 0.0,long: 0.0, M: 0,D: 0,H: 0,m: 0,s: 0, num steps: 0
lat: 0.0,long: 0.0, M: 0,D: 0,H: 0,m: 0,s: 0, num steps: 0
lat: 0.0,long: 0.0, M: 0,D: 0,H: 0,m: 0,s: 0, num steps: 0
lat: 0.0,long: 0.0, M: 0,D: 0,H: 0,m: 0,s: 0, num steps: 0
lat: 0.0,long: 0.0, M: 0,D: 0,H: 0,m: 0,s: 0, num steps: 0
lat: 0.0,long: 0.0, M: 0,D: 0,H: 0,m: 0,s: 0, num steps: 0
lat: 0.0,long: 0.0, M: 0,D: 0,H: 0,m: 0,s: 0, num steps: 0
lat: 0.0,long: 0.0, M: 0,D: 0,H: 0,m: 0,s: 0, num steps: 0
lat: 0.0,long: 0.0, M: 0,D: 0,H: 0,m: 0,s: 0, num steps: 0
lat: 0.0,long: 0.0, M: 0,D: 0,H: 0,m: 0,s: 0, num steps: 0
lat: 0.0,long: 0.0, M: 0,D: 0,H: 0,m: 0,s: 0, num steps: 0
lat: 0.0,long: 0.0, M: 0,D: 0,H: 0,m: 0,s: 0, num steps: 0
lat: 0.0,long: 0.0, M: 0,D: 0,H: 0,m: 0,s: 0, num steps: 0
lat: 0.0,long: 0.0, M: 0,D: 0,H: 0,m: 0,s: 0, num steps: 0
lat: 0.0,long: 0.0, M: 0,D: 0,H: 0,m: 0,s: 0, num steps: 0
lat: 0.0,long: 0.0, M: 0,D: 0,H: 0,m: 0,s: 0, num steps: 0
lat: 0.0,long: 0.0, M: 0,D: 0,H: 0,m: 0,s: 0, num steps: 0
lat: 0.0,long: 0.0, M: 0,D: 0,H: 0,m: 0,s: 0, num steps: 0
lat: 0.0,long: 0.0, M: 0,D: 0,H: 0,m: 0,s: 0, num steps: 0
lat: 0.0,long: 0.0, M: 0,D: 0,H: 0,m: 0,s: 0, num steps: 0

lat: 0.0,long: 0.0, M: 0,D: 0,H: 0,m: 0,s: 0, num steps: 0
lat: 0.0,long: 0.0, M: 0,D: 0,H: 0,m: 0,s: 0, num steps: 0
lat: 0.0,long: 0.0, M: 0,D: 0,H: 0,m: 0,s: 0, num steps: 0
lat: 0.0,long: 0.0, M: 0,D: 0,H: 0,m: 0,s: 0, num steps: 0
lat: 0.0,long: 0.0, M: 0,D: 0,H: 0,m: 0,s: 0, num steps: 0
lat: 0.0,long: 0.0, M: 0,D: 0,H: 0,m: 0,s: 0, num steps: 0
lat: 0.0,long: 0.0, M: 0,D: 0,H: 0,m: 0,s: 0, num steps: 0
lat: 0.0,long: 0.0, M: 0,D: 0,H: 0,m: 0,s: 0, num steps: 0
lat: 0.0,long: 0.0, M: 0,D: 0,H: 0,m: 0,s: 0, num steps: 0
lat: 0.0,long: 0.0, M: 0,D: 0,H: 0,m: 0,s: 0, num steps: 0
lat: 0.0,long: 0.0, M: 0,D: 0,H: 0,m: 0,s: 0, num steps: 0
lat: 0.0,long: 0.0, M: 0,D: 0,H: 0,m: 0,s: 0, num steps: 0
lat: 0.0,long: 0.0, M: 0,D: 0,H: 0,m: 0,s: 0, num steps: 0
lat: 0.0,long: 0.0, M: 0,D: 0,H: 0,m: 0,s: 0, num steps: 0
lat: 0.0,long: 0.0, M: 0,D: 0,H: 0,m: 0,s: 0, num steps: 0
lat: 0.0,long: 0.0, M: 0,D: 0,H: 0,m: 0,s: 0, num steps: 0
lat: 0.0,long: 0.0, M: 0,D: 0,H: 0,m: 0,s: 0, num steps: 0
lat: 0.0,long: 0.0, M: 0,D: 0,H: 0,m: 0,s: 0, num steps: 0
lat: 0.0,long: 0.0, M: 0,D: 0,H: 0,m: 0,s: 0, num steps: 0
lat: 0.0,long: 0.0, M: 0,D: 0,H: 0,m: 0,s: 0, num steps: 0

lat: 0.0,long: 0.0, M: 0,D: 0,H: 0,m: 0,s: 0, num steps: 0
lat: 0.0,long: 0.0, M: 0,D: 0,H: 0,m: 0,s: 0, num steps: 0
lat: 0.0,long: 0.0, M: 0,D: 0,H: 0,m: 0,s: 0, num steps: 0
lat: 0.0,long: 0.0, M: 0,D: 0,H: 0,m: 0,s: 0, num steps: 1
lat: 0.0,long: 0.0, M: 0,D: 0,H: 0,m: 0,s: 0, num steps: 1
lat: 0.0,long: 0.0, M: 0,D: 0,H: 0,m: 0,s: 0, num steps: 0
lat: 0.0,long: 0.0, M: 0,D: 0,H: 0,m: 0,s: 0, num steps: 0
lat: 0.0,long: 0.0, M: 0,D: 0,H: 0,m: 0,s: 0, num steps: 0
lat: 0.0,long: 0.0, M: 0,D: 0,H: 0,m: 0,s: 0, num steps: 0
lat: 0.0,long: 0.0, M: 0,D: 0,H: 0,m: 0,s: 0, num steps: 0
lat: 0.0,long: 0.0, M: 0,D: 0,H: 0,m: 0,s: 0, num steps: 0
lat: 0.0,long: 0.0, M: 0,D: 0,H: 0,m: 0,s: 0, num steps: 0
lat: 0.0,long: 0.0, M: 0,D: 0,H: 0,m: 0,s: 0, num steps: 0
lat: 0.0,long: 0.0, M: 0,D: 0,H: 0,m: 0,s: 0, num steps: 0
lat: 0.0,long: 0.0, M: 0,D: 0,H: 0,m: 0,s: 0, num steps: 0
lat: 0.0,long: 0.0, M: 0,D: 0,H: 0,m: 0,s: 0, num steps: 0
lat: 0.0,long: 0.0, M: 0,D: 0,H: 0,m: 0,s: 0, num steps: 0
lat: 0.0,long: 0.0, M: 0,D: 0,H: 0,m: 0,s: 0, num steps: 0
lat: 0.0,long: 0.0, M: 0,D: 0,H: 0,m: 0,s: 0, num steps: 0
lat: 0.0,long: 0.0, M: 0,D: 0,H: 0,m: 0,s: 0, num steps: 0

lat: 0.0,long: 0.0, M: 0,D: 0,H: 0,m: 0,s: 0, num steps: 0
lat: 0.0,long: 0.0, M: 0,D: 0,H: 0,m: 0,s: 0, num steps: 1
lat: 0.0,long: 0.0, M: 0,D: 0,H: 0,m: 0,s: 0, num steps: 0
lat: 0.0,long: 0.0, M: 0,D: 0,H: 0,m: 0,s: 0, num steps: 0
lat: 0.0,long: 0.0, M: 0,D: 0,H: 0,m: 0,s: 0, num steps: 0
lat: 0.0,long: 0.0, M: 0,D: 0,H: 0,m: 0,s: 0, num steps: 0
lat: 0.0,long: 0.0, M: 0,D: 0,H: 0,m: 0,s: 0, num steps: 0
lat: 0.0,long: 0.0, M: 0,D: 0,H: 0,m: 0,s: 0, num steps: 1
lat: 0.0,long: 0.0, M: 0,D: 0,H: 0,m: 0,s: 0, num steps: 0
lat: 0.0,long: 0.0, M: 0,D: 0,H: 0,m: 0,s: 0, num steps: 0
lat: 0.0,long: 0.0, M: 0,D: 0,H: 0,m: 0,s: 0, num steps: 0
lat: 0.0,long: 0.0, M: 0,D: 0,H: 0,m: 0,s: 0, num steps: 0
lat: 0.0,long: 0.0, M: 0,D: 0,H: 0,m: 0,s: 0, num steps: 0
lat: 0.0,long: 0.0, M: 0,D: 0,H: 0,m: 0,s: 0, num steps: 0
lat: 0.0,long: 0.0, M: 0,D: 0,H: 0,m: 0,s: 0, num steps: 0
lat: 0.0,long: 0.0, M: 0,D: 0,H: 0,m: 0,s: 0, num steps: 0
lat: 0.0,long: 0.0, M: 0,D: 0,H: 0,m: 0,s: 0, num steps: 0
lat: 0.0,long: 0.0, M: 0,D: 0,H: 0,m: 0,s: 0, num steps: 0
lat: 0.0,long: 0.0, M: 0,D: 0,H: 0,m: 0,s: 0, num steps: 0
lat: 0.0,long: 0.0, M: 0,D: 0,H: 0,m: 0,s: 0, num steps: 0

lat: 0.0,long: 0.0, M: 0,D: 0,H: 0,m: 0,s: 0, num steps: 0
lat: 0.0,long: 0.0, M: 0,D: 0,H: 0,m: 0,s: 0, num steps: 0
lat: 0.0,long: 0.0, M: 0,D: 0,H: 0,m: 0,s: 0, num steps: 0
lat: 0.0,long: 0.0, M: 0,D: 0,H: 0,m: 0,s: 0, num steps: 0
lat: 0.0,long: 0.0, M: 0,D: 0,H: 0,m: 0,s: 0, num steps: 0
lat: 0.0,long: 0.0, M: 0,D: 0,H: 0,m: 0,s: 0, num steps: 0
lat: 0.0,long: 0.0, M: 0,D: 0,H: 0,m: 0,s: 0, num steps: 0
lat: 0.0,long: 0.0, M: 0,D: 0,H: 0,m: 0,s: 0, num steps: 1
lat: 0.0,long: 0.0, M: 0,D: 0,H: 0,m: 0,s: 0, num steps: 0
lat: 0.0,long: 0.0, M: 0,D: 0,H: 0,m: 0,s: 0, num steps: 0
lat: 0.0,long: 0.0, M: 0,D: 0,H: 0,m: 0,s: 0, num steps: 0
lat: 0.0,long: 0.0, M: 0,D: 0,H: 0,m: 0,s: 0, num steps: 0
lat: 0.0,long: 0.0, M: 0,D: 0,H: 0,m: 0,s: 0, num steps: 0
lat: 0.0,long: 0.0, M: 0,D: 0,H: 0,m: 0,s: 0, num steps: 0
lat: 0.0,long: 0.0, M: 0,D: 0,H: 0,m: 0,s: 0, num steps: 0
lat: 0.0,long: 0.0, M: 0,D: 0,H: 0,m: 0,s: 0, num steps: 0
lat: 0.0,long: 0.0, M: 0,D: 0,H: 0,m: 0,s: 0, num steps: 0
lat: 0.0,long: 0.0, M: 0,D: 0,H: 0,m: 0,s: 0, num steps: 0
lat: 0.0,long: 0.0, M: 0,D: 0,H: 0,m: 0,s: 0, num steps: 0
lat: 0.0,long: 0.0, M: 0,D: 0,H: 0,m: 0,s: 0, num steps: 0

lat: 0.0,long: 0.0, M: 0,D: 0,H: 0,m: 0,s: 0, num steps: 0
lat: 0.0,long: 0.0, M: 0,D: 0,H: 0,m: 0,s: 0, num steps: 0
lat: 0.0,long: 0.0, M: 0,D: 0,H: 0,m: 0,s: 0, num steps: 0
lat: 0.0,long: 0.0, M: 0,D: 0,H: 0,m: 0,s: 0, num steps: 0
lat: 0.0,long: 0.0, M: 0,D: 0,H: 0,m: 0,s: 0, num steps: 0
lat: 0.0,long: 0.0, M: 0,D: 0,H: 0,m: 0,s: 0, num steps: 0
lat: 0.0,long: 0.0, M: 0,D: 0,H: 0,m: 0,s: 0, num steps: 0
lat: 0.0,long: 0.0, M: 0,D: 0,H: 0,m: 0,s: 0, num steps: 0
lat: 0.0,long: 0.0, M: 0,D: 0,H: 0,m: 0,s: 0, num steps: 0
lat: 0.0,long: 0.0, M: 0,D: 0,H: 0,m: 0,s: 0, num steps: 0
lat: 0.0,long: 0.0, M: 0,D: 0,H: 0,m: 0,s: 0, num steps: 0
lat: 0.0,long: 0.0, M: 0,D: 0,H: 0,m: 0,s: 0, num steps: 0
lat: 0.0,long: 0.0, M: 0,D: 0,H: 0,m: 0,s: 0, num steps: 0
lat: 0.0,long: 0.0, M: 0,D: 0,H: 0,m: 0,s: 0, num steps: 0
lat: 0.0,long: 0.0, M: 0,D: 0,H: 0,m: 0,s: 0, num steps: 0
lat: 0.0,long: 0.0, M: 0,D: 0,H: 0,m: 0,s: 0, num steps: 0
lat: 0.0,long: 0.0, M: 0,D: 0,H: 0,m: 0,s: 0, num steps: 0
lat: 0.0,long: 0.0, M: 0,D: 0,H: 0,m: 0,s: 0, num steps: 0
lat: 0.0,long: 0.0, M: 0,D: 0,H: 0,m: 0,s: 0, num steps: 0
lat: 0.0,long: 0.0, M: 0,D: 0,H: 0,m: 0,s: 0, num steps: 0

lat: 0.0,long: 0.0, M: 0,D: 0,H: 0,m: 0,s: 0, num steps: 0
lat: 0.0,long: 0.0, M: 0,D: 0,H: 0,m: 0,s: 0, num steps: 0
lat: 0.0,long: 0.0, M: 0,D: 0,H: 0,m: 0,s: 0, num steps: 0
lat: 0.0,long: 0.0, M: 0,D: 0,H: 0,m: 0,s: 0, num steps: 0
lat: 0.0,long: 0.0, M: 0,D: 0,H: 0,m: 0,s: 0, num steps: 0
lat: 0.0,long: 0.0, M: 0,D: 0,H: 0,m: 0,s: 0, num steps: 0
lat: 0.0,long: 0.0, M: 0,D: 0,H: 0,m: 0,s: 0, num steps: 0
lat: 0.0,long: 0.0, M: 0,D: 0,H: 0,m: 0,s: 0, num steps: 0
lat: 0.0,long: 0.0, M: 0,D: 0,H: 0,m: 0,s: 0, num steps: 0
lat: 0.0,long: 0.0, M: 0,D: 0,H: 0,m: 0,s: 0, num steps: 0
lat: 0.0,long: 0.0, M: 0,D: 0,H: 0,m: 0,s: 0, num steps: 0
lat: 0.0,long: 0.0, M: 0,D: 0,H: 0,m: 0,s: 0, num steps: 0
lat: 0.0,long: 0.0, M: 0,D: 0,H: 0,m: 0,s: 0, num steps: 0
lat: 0.0,long: 0.0, M: 0,D: 0,H: 0,m: 0,s: 0, num steps: 0
lat: 0.0,long: 0.0, M: 0,D: 0,H: 0,m: 0,s: 0, num steps: 0
lat: 0.0,long: 0.0, M: 0,D: 0,H: 0,m: 0,s: 0, num steps: 0
lat: 0.0,long: 0.0, M: 0,D: 0,H: 0,m: 0,s: 0, num steps: 0
lat: 0.0,long: 0.0, M: 0,D: 0,H: 0,m: 0,s: 0, num steps: 0
lat: 0.0,long: 0.0, M: 0,D: 0,H: 0,m: 0,s: 0, num steps: 0
lat: 0.0,long: 0.0, M: 0,D: 0,H: 0,m: 0,s: 0, num steps: 0

lat: 0.0,long: 0.0, M: 0,D: 0,H: 0,m: 0,s: 0, num steps: 0
lat: 0.0,long: 0.0, M: 0,D: 0,H: 0,m: 0,s: 0, num steps: 0
lat: 0.0,long: 0.0, M: 0,D: 0,H: 0,m: 0,s: 0, num steps: 0
lat: 0.0,long: 0.0, M: 0,D: 0,H: 0,m: 0,s: 0, num steps: 6
lat: 0.0,long: 0.0, M: 0,D: 0,H: 0,m: 0,s: 0, num steps: 4
lat: 0.0,long: 0.0, M: 0,D: 0,H: 0,m: 0,s: 0, num steps: 2
lat: 0.0,long: 0.0, M: 0,D: 0,H: 0,m: 0,s: 0, num steps: 0
lat: 0.0,long: 0.0, M: 0,D: 0,H: 0,m: 0,s: 0, num steps: 1
lat: 0.0,long: 0.0, M: 0,D: 0,H: 0,m: 0,s: 0, num steps: 0
lat: 0.0,long: 0.0, M: 0,D: 0,H: 0,m: 0,s: 0, num steps: 0
lat: 0.0,long: 0.0, M: 0,D: 0,H: 0,m: 0,s: 0, num steps: 0
lat: 0.0,long: 0.0, M: 0,D: 0,H: 0,m: 0,s: 0, num steps: 0
lat: 0.0,long: 0.0, M: 0,D: 0,H: 0,m: 0,s: 0, num steps: 0
lat: 0.0,long: 0.0, M: 0,D: 0,H: 0,m: 0,s: 0, num steps: 0
lat: 0.0,long: 0.0, M: 0,D: 0,H: 0,m: 0,s: 0, num steps: 0
lat: 0.0,long: 0.0, M: 0,D: 0,H: 0,m: 0,s: 0, num steps: 0
lat: 0.0,long: 0.0, M: 0,D: 0,H: 0,m: 0,s: 0, num steps: 0
lat: 0.0,long: 0.0, M: 0,D: 0,H: 0,m: 0,s: 0, num steps: 0
lat: 0.0,long: 0.0, M: 0,D: 0,H: 0,m: 0,s: 0, num steps: 0
lat: 0.0,long: 0.0, M: 0,D: 0,H: 0,m: 0,s: 0, num steps: 0

lat: 0.0,long: 0.0, M: 0,D: 0,H: 0,m: 0,s: 0, num steps: 0
lat: 0.0,long: 0.0, M: 0,D: 0,H: 0,m: 0,s: 0, num steps: 0
lat: 0.0,long: 0.0, M: 0,D: 0,H: 0,m: 0,s: 0, num steps: 0
lat: 0.0,long: 0.0, M: 0,D: 0,H: 0,m: 0,s: 0, num steps: 0
lat: 0.0,long: 0.0, M: 0,D: 0,H: 0,m: 0,s: 0, num steps: 0
lat: 0.0,long: 0.0, M: 0,D: 0,H: 0,m: 0,s: 0, num steps: 0
lat: 0.0,long: 0.0, M: 0,D: 0,H: 0,m: 0,s: 0, num steps: 0
lat: 0.0,long: 0.0, M: 0,D: 0,H: 0,m: 0,s: 0, num steps: 0
lat: 0.0,long: 0.0, M: 0,D: 0,H: 0,m: 0,s: 0, num steps: 0
lat: 0.0,long: 0.0, M: 0,D: 0,H: 0,m: 0,s: 0, num steps: 0
lat: 0.0,long: 0.0, M: 0,D: 0,H: 0,m: 0,s: 0, num steps: 0
lat: 0.0,long: 0.0, M: 0,D: 0,H: 0,m: 0,s: 0, num steps: 0
lat: 0.0,long: 0.0, M: 0,D: 0,H: 0,m: 0,s: 0, num steps: 0
lat: 0.0,long: 0.0, M: 0,D: 0,H: 0,m: 0,s: 0, num steps: 0
lat: 0.0,long: 0.0, M: 0,D: 0,H: 0,m: 0,s: 0, num steps: 0
lat: 0.0,long: 0.0, M: 0,D: 0,H: 0,m: 0,s: 0, num steps: 0
lat: 0.0,long: 0.0, M: 0,D: 0,H: 0,m: 0,s: 0, num steps: 0
lat: 0.0,long: 0.0, M: 0,D: 0,H: 0,m: 0,s: 0, num steps: 0
lat: 0.0,long: 0.0, M: 0,D: 0,H: 0,m: 0,s: 0, num steps: 0
lat: 0.0,long: 0.0, M: 0,D: 0,H: 0,m: 0,s: 0, num steps: 0

lat: 0.0,long: 0.0, M: 0,D: 0,H: 0,m: 0,s: 0, num steps: 0
lat: 0.0,long: 0.0, M: 0,D: 0,H: 0,m: 0,s: 0, num steps: 0
lat: 0.0,long: 0.0, M: 0,D: 0,H: 0,m: 0,s: 0, num steps: 5
lat: 0.0,long: 0.0, M: 0,D: 0,H: 0,m: 0,s: 0, num steps: 3
lat: 0.0,long: 0.0, M: 0,D: 0,H: 0,m: 0,s: 0, num steps: 1
lat: 0.0,long: 0.0, M: 0,D: 0,H: 0,m: 0,s: 0, num steps: 0
lat: 0.0,long: 0.0, M: 0,D: 0,H: 0,m: 0,s: 0, num steps: 0
lat: 0.0,long: 0.0, M: 0,D: 0,H: 0,m: 0,s: 0, num steps: 1
lat: 0.0,long: 0.0, M: 0,D: 0,H: 0,m: 0,s: 0, num steps: 0
lat: 0.0,long: 0.0, M: 0,D: 0,H: 0,m: 0,s: 0, num steps: 0
lat: 0.0,long: 0.0, M: 0,D: 0,H: 0,m: 0,s: 0, num steps: 0
lat: 0.0,long: 0.0, M: 0,D: 0,H: 0,m: 0,s: 0, num steps: 0
lat: 0.0,long: 0.0, M: 0,D: 0,H: 0,m: 0,s: 0, num steps: 0
lat: 0.0,long: 0.0, M: 0,D: 0,H: 0,m: 0,s: 0, num steps: 0
lat: 0.0,long: 0.0, M: 0,D: 0,H: 0,m: 0,s: 0, num steps: 0
lat: 0.0,long: 0.0, M: 0,D: 0,H: 0,m: 0,s: 0, num steps: 0
lat: 0.0,long: 0.0, M: 0,D: 0,H: 0,m: 0,s: 0, num steps: 0
lat: 0.0,long: 0.0, M: 0,D: 0,H: 0,m: 0,s: 0, num steps: 0
lat: 0.0,long: 0.0, M: 0,D: 0,H: 0,m: 0,s: 0, num steps: 0
lat: 0.0,long: 0.0, M: 0,D: 0,H: 0,m: 0,s: 0, num steps: 0

lat: 0.0,long: 0.0, M: 0,D: 0,H: 0,m: 0,s: 0, num steps: 0
lat: 0.0,long: 0.0, M: 0,D: 0,H: 0,m: 0,s: 0, num steps: 0
lat: 0.0,long: 0.0, M: 0,D: 0,H: 0,m: 0,s: 0, num steps: 0
lat: 0.0,long: 0.0, M: 0,D: 0,H: 0,m: 0,s: 0, num steps: 0
lat: 0.0,long: 0.0, M: 0,D: 0,H: 0,m: 0,s: 0, num steps: 0
lat: 0.0,long: 0.0, M: 0,D: 0,H: 0,m: 0,s: 0, num steps: 0
lat: 0.0,long: 0.0, M: 0,D: 0,H: 0,m: 0,s: 0, num steps: 0
lat: 0.0,long: 0.0, M: 0,D: 0,H: 0,m: 0,s: 0, num steps: 0
lat: 0.0,long: 0.0, M: 0,D: 0,H: 0,m: 0,s: 0, num steps: 0
lat: 0.0,long: 0.0, M: 0,D: 0,H: 0,m: 0,s: 0, num steps: 0
lat: 0.0,long: 0.0, M: 0,D: 0,H: 0,m: 0,s: 0, num steps: 0
lat: 0.0,long: 0.0, M: 0,D: 0,H: 0,m: 0,s: 0, num steps: 0
lat: 0.0,long: 0.0, M: 0,D: 0,H: 0,m: 0,s: 0, num steps: 0
lat: 0.0,long: 0.0, M: 0,D: 0,H: 0,m: 0,s: 0, num steps: 0
lat: 0.0,long: 0.0, M: 0,D: 0,H: 0,m: 0,s: 0, num steps: 0
lat: 0.0,long: 0.0, M: 0,D: 0,H: 0,m: 0,s: 0, num steps: 0
lat: 0.0,long: 0.0, M: 0,D: 0,H: 0,m: 0,s: 0, num steps: 0
lat: 0.0,long: 0.0, M: 0,D: 0,H: 0,m: 0,s: 0, num steps: 0
lat: 0.0,long: 0.0, M: 0,D: 0,H: 0,m: 0,s: 0, num steps: 0
lat: 0.0,long: 0.0, M: 0,D: 0,H: 0,m: 0,s: 0, num steps: 0

lat: 0.0,long: 0.0, M: 0,D: 0,H: 0,m: 0,s: 0, num steps: 0
lat: 0.0,long: 0.0, M: 0,D: 0,H: 0,m: 0,s: 0, num steps: 0
lat: 0.0,long: 0.0, M: 0,D: 0,H: 0,m: 0,s: 0, num steps: 0
lat: 0.0,long: 0.0, M: 0,D: 0,H: 0,m: 0,s: 0, num steps: 0
lat: 0.0,long: 0.0, M: 0,D: 0,H: 0,m: 0,s: 0, num steps: 0
lat: 0.0,long: 0.0, M: 0,D: 0,H: 0,m: 0,s: 0, num steps: 0
lat: 0.0,long: 0.0, M: 0,D: 0,H: 0,m: 0,s: 0, num steps: 0
lat: 0.0,long: 0.0, M: 0,D: 0,H: 0,m: 0,s: 0, num steps: 0
lat: 0.0,long: 0.0, M: 0,D: 0,H: 0,m: 0,s: 0, num steps: 0
lat: 0.0,long: 0.0, M: 0,D: 0,H: 0,m: 0,s: 0, num steps: 0
lat: 0.0,long: 0.0, M: 0,D: 0,H: 0,m: 0,s: 0, num steps: 0
lat: 0.0,long: 0.0, M: 0,D: 0,H: 0,m: 0,s: 0, num steps: 0
lat: 0.0,long: 0.0, M: 0,D: 0,H: 0,m: 0,s: 0, num steps: 0
lat: 0.0,long: 0.0, M: 0,D: 0,H: 0,m: 0,s: 0, num steps: 0
lat: 0.0,long: 0.0, M: 0,D: 0,H: 0,m: 0,s: 0, num steps: 0
lat: 0.0,long: 0.0, M: 0,D: 0,H: 0,m: 0,s: 0, num steps: 0
lat: 0.0,long: 0.0, M: 0,D: 0,H: 0,m: 0,s: 0, num steps: 0
lat: 0.0,long: 0.0, M: 0,D: 0,H: 0,m: 0,s: 0, num steps: 0
lat: 0.0,long: 0.0, M: 0,D: 0,H: 0,m: 0,s: 0, num steps: 0
lat: 0.0,long: 0.0, M: 0,D: 0,H: 0,m: 0,s: 0, num steps: 0

lat: 0.0,long: 0.0, M: 0,D: 0,H: 0,m: 0,s: 0, num steps: 0
lat: 0.0,long: 0.0, M: 0,D: 0,H: 0,m: 0,s: 0, num steps: 0
lat: 0.0,long: 0.0, M: 0,D: 0,H: 0,m: 0,s: 0, num steps: 0
lat: 0.0,long: 0.0, M: 0,D: 0,H: 0,m: 0,s: 0, num steps: 0
lat: 0.0,long: 0.0, M: 0,D: 0,H: 0,m: 0,s: 0, num steps: 0
lat: 0.0,long: 0.0, M: 0,D: 0,H: 0,m: 0,s: 0, num steps: 0
lat: 0.0,long: 0.0, M: 0,D: 0,H: 0,m: 0,s: 0, num steps: 0
lat: 0.0,long: 0.0, M: 0,D: 0,H: 0,m: 0,s: 0, num steps: 0
lat: 0.0,long: 0.0, M: 0,D: 0,H: 0,m: 0,s: 0, num steps: 0
lat: 0.0,long: 0.0, M: 0,D: 0,H: 0,m: 0,s: 0, num steps: 0
lat: 0.0,long: 0.0, M: 0,D: 0,H: 0,m: 0,s: 0, num steps: 0
lat: 0.0,long: 0.0, M: 0,D: 0,H: 0,m: 0,s: 0, num steps: 0
lat: 0.0,long: 0.0, M: 0,D: 0,H: 0,m: 0,s: 0, num steps: 0
lat: 0.0,long: 0.0, M: 0,D: 0,H: 0,m: 0,s: 0, num steps: 0
lat: 0.0,long: 0.0, M: 0,D: 0,H: 0,m: 0,s: 0, num steps: 0
lat: 0.0,long: 0.0, M: 0,D: 0,H: 0,m: 0,s: 0, num steps: 0
lat: 0.0,long: 0.0, M: 0,D: 0,H: 0,m: 0,s: 0, num steps: 0
lat: 0.0,long: 0.0, M: 0,D: 0,H: 0,m: 0,s: 0, num steps: 0
lat: 0.0,long: 0.0, M: 0,D: 0,H: 0,m: 0,s: 0, num steps: 0
lat: 0.0,long: 0.0, M: 0,D: 0,H: 0,m: 0,s: 0, num steps: 0

lat: 0.0,long: 0.0, M: 0,D: 0,H: 0,m: 0,s: 0, num steps: 3
lat: 0.0,long: 0.0, M: 0,D: 0,H: 0,m: 0,s: 0, num steps: 5
lat: 0.0,long: 0.0, M: 0,D: 0,H: 0,m: 0,s: 0, num steps: 11
lat: 0.0,long: 0.0, M: 0,D: 0,H: 0,m: 0,s: 0, num steps: 3
lat: 0.0,long: 0.0, M: 0,D: 0,H: 0,m: 0,s: 0, num steps: 2
lat: 0.0,long: 0.0, M: 0,D: 0,H: 0,m: 0,s: 0, num steps: 0
lat: 0.0,long: 0.0, M: 0,D: 0,H: 0,m: 0,s: 0, num steps: 0
lat: 0.0,long: 0.0, M: 0,D: 0,H: 0,m: 0,s: 0, num steps: 0
lat: 0.0,long: 0.0, M: 0,D: 0,H: 0,m: 0,s: 0, num steps: 0
lat: 0.0,long: 0.0, M: 0,D: 0,H: 0,m: 0,s: 0, num steps: 0
lat: 0.0,long: 0.0, M: 0,D: 0,H: 0,m: 0,s: 0, num steps: 0
lat: 0.0,long: 0.0, M: 0,D: 0,H: 0,m: 0,s: 0, num steps: 0
lat: 0.0,long: 0.0, M: 0,D: 0,H: 0,m: 0,s: 0, num steps: 0
lat: 0.0,long: 0.0, M: 0,D: 0,H: 0,m: 0,s: 0, num steps: 0
lat: 0.0,long: 0.0, M: 0,D: 0,H: 0,m: 0,s: 0, num steps: 0
lat: 0.0,long: 0.0, M: 0,D: 0,H: 0,m: 0,s: 0, num steps: 0
lat: 0.0,long: 0.0, M: 0,D: 0,H: 0,m: 0,s: 0, num steps: 0
lat: 0.0,long: 0.0, M: 0,D: 0,H: 0,m: 0,s: 0, num steps: 0
lat: 0.0,long: 0.0, M: 0,D: 0,H: 0,m: 0,s: 0, num steps: 0
lat: 0.0,long: 0.0, M: 0,D: 0,H: 0,m: 0,s: 0, num steps: 0

lat: 0.0,long: 0.0, M: 0,D: 0,H: 0,m: 0,s: 0, num steps: 3
lat: 0.0,long: 0.0, M: 0,D: 0,H: 0,m: 0,s: 0, num steps: 1
lat: 0.0,long: 0.0, M: 0,D: 0,H: 0,m: 0,s: 0, num steps: 0
lat: 0.0,long: 0.0, M: 0,D: 0,H: 0,m: 0,s: 0, num steps: 0
lat: 0.0,long: 0.0, M: 0,D: 0,H: 0,m: 0,s: 0, num steps: 1
lat: 0.0,long: 0.0, M: 0,D: 0,H: 0,m: 0,s: 0, num steps: 0
lat: 0.0,long: 0.0, M: 0,D: 0,H: 0,m: 0,s: 0, num steps: 0
lat: 0.0,long: 0.0, M: 0,D: 0,H: 0,m: 0,s: 0, num steps: 0
lat: 0.0,long: 0.0, M: 0,D: 0,H: 0,m: 0,s: 0, num steps: 0
lat: 0.0,long: 0.0, M: 0,D: 0,H: 0,m: 0,s: 0, num steps: 0
lat: 0.0,long: 0.0, M: 0,D: 0,H: 0,m: 0,s: 0, num steps: 0
lat: 0.0,long: 0.0, M: 0,D: 0,H: 0,m: 0,s: 0, num steps: 0
lat: 0.0,long: 0.0, M: 0,D: 0,H: 0,m: 0,s: 0, num steps: 0
lat: 0.0,long: 0.0, M: 0,D: 0,H: 0,m: 0,s: 0, num steps: 0
lat: 0.0,long: 0.0, M: 0,D: 0,H: 0,m: 0,s: 0, num steps: 0
lat: 0.0,long: 0.0, M: 0,D: 0,H: 0,m: 0,s: 0, num steps: 0
lat: 0.0,long: 0.0, M: 0,D: 0,H: 0,m: 0,s: 0, num steps: 0
lat: 0.0,long: 0.0, M: 0,D: 0,H: 0,m: 0,s: 0, num steps: 0
lat: 0.0,long: 0.0, M: 0,D: 0,H: 0,m: 0,s: 0, num steps: 0
lat: 0.0,long: 0.0, M: 0,D: 0,H: 0,m: 0,s: 0, num steps: 0

lat: 0.0,long: 0.0, M: 0,D: 0,H: 0,m: 0,s: 0, num steps: 0
lat: 0.0,long: 0.0, M: 0,D: 0,H: 0,m: 0,s: 0, num steps: 0
lat: 0.0,long: 0.0, M: 0,D: 0,H: 0,m: 0,s: 0, num steps: 0
lat: 0.0,long: 0.0, M: 0,D: 0,H: 0,m: 0,s: 0, num steps: 0
lat: 0.0,long: 0.0, M: 0,D: 0,H: 0,m: 0,s: 0, num steps: 0
lat: 0.0,long: 0.0, M: 0,D: 0,H: 0,m: 0,s: 0, num steps: 0
lat: 0.0,long: 0.0, M: 0,D: 0,H: 0,m: 0,s: 0, num steps: 0
lat: 0.0,long: 0.0, M: 0,D: 0,H: 0,m: 0,s: 0, num steps: 0
lat: 0.0,long: 0.0, M: 0,D: 0,H: 0,m: 0,s: 0, num steps: 0
lat: 0.0,long: 0.0, M: 0,D: 0,H: 0,m: 0,s: 0, num steps: 0
lat: 0.0,long: 0.0, M: 0,D: 0,H: 0,m: 0,s: 0, num steps: 0
lat: 0.0,long: 0.0, M: 0,D: 0,H: 0,m: 0,s: 0, num steps: 0
lat: 0.0,long: 0.0, M: 0,D: 0,H: 0,m: 0,s: 0, num steps: 0
lat: 0.0,long: 0.0, M: 0,D: 0,H: 0,m: 0,s: 0, num steps: 0
lat: 0.0,long: 0.0, M: 0,D: 0,H: 0,m: 0,s: 0, num steps: 0
lat: 0.0,long: 0.0, M: 0,D: 0,H: 0,m: 0,s: 0, num steps: 0
lat: 0.0,long: 0.0, M: 0,D: 0,H: 0,m: 0,s: 0, num steps: 0
lat: 0.0,long: 0.0, M: 0,D: 0,H: 0,m: 0,s: 0, num steps: 0
lat: 0.0,long: 0.0, M: 0,D: 0,H: 0,m: 0,s: 0, num steps: 0
lat: 0.0,long: 0.0, M: 0,D: 0,H: 0,m: 0,s: 0, num steps: 0

lat: 0.0,long: 0.0, M: 0,D: 0,H: 0,m: 0,s: 0, num steps: 5
lat: 0.0,long: 0.0, M: 0,D: 0,H: 0,m: 0,s: 0, num steps: 6
lat: 0.0,long: 0.0, M: 0,D: 0,H: 0,m: 0,s: 0, num steps: 4
lat: 0.0,long: 0.0, M: 0,D: 0,H: 0,m: 0,s: 0, num steps: 9
lat: 0.0,long: 0.0, M: 0,D: 0,H: 0,m: 0,s: 0, num steps: 0
lat: 0.0,long: 0.0, M: 0,D: 0,H: 0,m: 0,s: 0, num steps: 0
lat: 0.0,long: 0.0, M: 0,D: 0,H: 0,m: 0,s: 0, num steps: 0
lat: 0.0,long: 0.0, M: 0,D: 0,H: 0,m: 0,s: 0, num steps: 0
lat: 0.0,long: 0.0, M: 0,D: 0,H: 0,m: 0,s: 0, num steps: 0
lat: 0.0,long: 0.0, M: 0,D: 0,H: 0,m: 0,s: 0, num steps: 0
lat: 0.0,long: 0.0, M: 0,D: 0,H: 0,m: 0,s: 0, num steps: 0
lat: 0.0,long: 0.0, M: 0,D: 0,H: 0,m: 0,s: 0, num steps: 0
lat: 0.0,long: 0.0, M: 0,D: 0,H: 0,m: 0,s: 0, num steps: 0
lat: 0.0,long: 0.0, M: 0,D: 0,H: 0,m: 0,s: 0, num steps: 0
lat: 0.0,long: 0.0, M: 0,D: 0,H: 0,m: 0,s: 0, num steps: 0
lat: 0.0,long: 0.0, M: 0,D: 0,H: 0,m: 0,s: 0, num steps: 0
lat: 0.0,long: 0.0, M: 0,D: 0,H: 0,m: 0,s: 0, num steps: 0
lat: 0.0,long: 0.0, M: 0,D: 0,H: 0,m: 0,s: 0, num steps: 0
lat: 0.0,long: 0.0, M: 0,D: 0,H: 0,m: 0,s: 0, num steps: 0
lat: 0.0,long: 0.0, M: 0,D: 0,H: 0,m: 0,s: 0, num steps: 0

lat: 0.0,long: 0.0, M: 0,D: 0,H: 0,m: 0,s: 0, num steps: 2
lat: 0.0,long: 0.0, M: 0,D: 0,H: 0,m: 0,s: 0, num steps: 7
lat: 0.0,long: 0.0, M: 0,D: 0,H: 0,m: 0,s: 0, num steps: 10
lat: 0.0,long: 0.0, M: 0,D: 0,H: 0,m: 0,s: 0, num steps: 5
lat: 0.0,long: 0.0, M: 0,D: 0,H: 0,m: 0,s: 0, num steps: 1
lat: 0.0,long: 0.0, M: 0,D: 0,H: 0,m: 0,s: 0, num steps: 0
lat: 0.0,long: 0.0, M: 0,D: 0,H: 0,m: 0,s: 0, num steps: 0
lat: 0.0,long: 0.0, M: 0,D: 0,H: 0,m: 0,s: 0, num steps: 0
lat: 0.0,long: 0.0, M: 0,D: 0,H: 0,m: 0,s: 0, num steps: 0
lat: 0.0,long: 0.0, M: 0,D: 0,H: 0,m: 0,s: 0, num steps: 0
lat: 0.0,long: 0.0, M: 0,D: 0,H: 0,m: 0,s: 0, num steps: 0
lat: 0.0,long: 0.0, M: 0,D: 0,H: 0,m: 0,s: 0, num steps: 0
lat: 0.0,long: 0.0, M: 0,D: 0,H: 0,m: 0,s: 0, num steps: 0
lat: 0.0,long: 0.0, M: 0,D: 0,H: 0,m: 0,s: 0, num steps: 0
lat: 0.0,long: 0.0, M: 0,D: 0,H: 0,m: 0,s: 0, num steps: 0
lat: 0.0,long: 0.0, M: 0,D: 0,H: 0,m: 0,s: 0, num steps: 0
lat: 0.0,long: 0.0, M: 0,D: 0,H: 0,m: 0,s: 0, num steps: 0
lat: 0.0,long: 0.0, M: 0,D: 0,H: 0,m: 0,s: 0, num steps: 0
lat: 0.0,long: 0.0, M: 0,D: 0,H: 0,m: 0,s: 0, num steps: 0
lat: 0.0,long: 0.0, M: 0,D: 0,H: 0,m: 0,s: 0, num steps: 0

lat: 0.0,long: 0.0, M: 0,D: 0,H: 0,m: 0,s: 0, num steps: 6
lat: 0.0,long: 0.0, M: 0,D: 0,H: 0,m: 0,s: 0, num steps: 0
lat: 0.0,long: 0.0, M: 0,D: 0,H: 0,m: 0,s: 0, num steps: 0
lat: 0.0,long: 0.0, M: 0,D: 0,H: 0,m: 0,s: 0, num steps: 5
lat: 0.0,long: 0.0, M: 0,D: 0,H: 0,m: 0,s: 0, num steps: 1
lat: 0.0,long: 0.0, M: 0,D: 0,H: 0,m: 0,s: 0, num steps: 0
lat: 0.0,long: 0.0, M: 0,D: 0,H: 0,m: 0,s: 0, num steps: 0
lat: 0.0,long: 0.0, M: 0,D: 0,H: 0,m: 0,s: 0, num steps: 0
lat: 0.0,long: 0.0, M: 0,D: 0,H: 0,m: 0,s: 0, num steps: 0
lat: 0.0,long: 0.0, M: 0,D: 0,H: 0,m: 0,s: 0, num steps: 0
lat: 0.0,long: 0.0, M: 0,D: 0,H: 0,m: 0,s: 0, num steps: 0
lat: 0.0,long: 0.0, M: 0,D: 0,H: 0,m: 0,s: 0, num steps: 0
lat: 0.0,long: 0.0, M: 0,D: 0,H: 0,m: 0,s: 0, num steps: 0
lat: 0.0,long: 0.0, M: 0,D: 0,H: 0,m: 0,s: 0, num steps: 0
lat: 0.0,long: 0.0, M: 0,D: 0,H: 0,m: 0,s: 0, num steps: 0
lat: 0.0,long: 0.0, M: 0,D: 0,H: 0,m: 0,s: 0, num steps: 0
lat: 0.0,long: 0.0, M: 0,D: 0,H: 0,m: 0,s: 0, num steps: 0
lat: 0.0,long: 0.0, M: 0,D: 0,H: 0,m: 0,s: 0, num steps: 0
lat: 0.0,long: 0.0, M: 0,D: 0,H: 0,m: 0,s: 0, num steps: 0
lat: 0.0,long: 0.0, M: 0,D: 0,H: 0,m: 0,s: 0, num steps: 0

lat: 0.0,long: 0.0, M: 0,D: 0,H: 0,m: 0,s: 0, num steps: 2
lat: 0.0,long: 0.0, M: 0,D: 0,H: 0,m: 0,s: 0, num steps: 3
lat: 0.0,long: 0.0, M: 0,D: 0,H: 0,m: 0,s: 0, num steps: 5
lat: 0.0,long: 0.0, M: 0,D: 0,H: 0,m: 0,s: 0, num steps: 8
lat: 0.0,long: 0.0, M: 0,D: 0,H: 0,m: 0,s: 0, num steps: 0
lat: 0.0,long: 0.0, M: 0,D: 0,H: 0,m: 0,s: 0, num steps: 0
lat: 0.0,long: 0.0, M: 0,D: 0,H: 0,m: 0,s: 0, num steps: 0
lat: 0.0,long: 0.0, M: 0,D: 0,H: 0,m: 0,s: 0, num steps: 0
lat: 0.0,long: 0.0, M: 0,D: 0,H: 0,m: 0,s: 0, num steps: 0
lat: 0.0,long: 0.0, M: 0,D: 0,H: 0,m: 0,s: 0, num steps: 0
lat: 0.0,long: 0.0, M: 0,D: 0,H: 0,m: 0,s: 0, num steps: 0
lat: 0.0,long: 0.0, M: 0,D: 0,H: 0,m: 0,s: 0, num steps: 0
lat: 0.0,long: 0.0, M: 0,D: 0,H: 0,m: 0,s: 0, num steps: 0
lat: 0.0,long: 0.0, M: 0,D: 0,H: 0,m: 0,s: 0, num steps: 0
lat: 0.0,long: 0.0, M: 0,D: 0,H: 0,m: 0,s: 0, num steps: 0
lat: 0.0,long: 0.0, M: 0,D: 0,H: 0,m: 0,s: 0, num steps: 0
lat: 0.0,long: 0.0, M: 0,D: 0,H: 0,m: 0,s: 0, num steps: 0
lat: 0.0,long: 0.0, M: 0,D: 0,H: 0,m: 0,s: 0, num steps: 0
lat: 0.0,long: 0.0, M: 0,D: 0,H: 0,m: 0,s: 0, num steps: 0
lat: 0.0,long: 0.0, M: 0,D: 0,H: 0,m: 0,s: 0, num steps: 0

lat: 0.0,long: 0.0, M: 0,D: 0,H: 0,m: 0,s: 0, num steps: 4
lat: 0.0,long: 0.0, M: 0,D: 0,H: 0,m: 0,s: 0, num steps: 5
lat: 0.0,long: 0.0, M: 0,D: 0,H: 0,m: 0,s: 0, num steps: 8
lat: 0.0,long: 0.0, M: 0,D: 0,H: 0,m: 0,s: 0, num steps: 7
lat: 0.0,long: 0.0, M: 0,D: 0,H: 0,m: 0,s: 0, num steps: 2
lat: 0.0,long: 0.0, M: 0,D: 0,H: 0,m: 0,s: 0, num steps: 0
lat: 0.0,long: 0.0, M: 0,D: 0,H: 0,m: 0,s: 0, num steps: 0
lat: 0.0,long: 0.0, M: 0,D: 0,H: 0,m: 0,s: 0, num steps: 0
lat: 0.0,long: 0.0, M: 0,D: 0,H: 0,m: 0,s: 0, num steps: 0
lat: 0.0,long: 0.0, M: 0,D: 0,H: 0,m: 0,s: 0, num steps: 0
lat: 0.0,long: 0.0, M: 0,D: 0,H: 0,m: 0,s: 0, num steps: 0
lat: 0.0,long: 0.0, M: 0,D: 0,H: 0,m: 0,s: 0, num steps: 0
lat: 0.0,long: 0.0, M: 0,D: 0,H: 0,m: 0,s: 0, num steps: 0
lat: 0.0,long: 0.0, M: 0,D: 0,H: 0,m: 0,s: 0, num steps: 0
lat: 0.0,long: 0.0, M: 0,D: 0,H: 0,m: 0,s: 0, num steps: 0
lat: 0.0,long: 0.0, M: 0,D: 0,H: 0,m: 0,s: 0, num steps: 0
lat: 0.0,long: 0.0, M: 0,D: 0,H: 0,m: 0,s: 0, num steps: 0
lat: 0.0,long: 0.0, M: 0,D: 0,H: 0,m: 0,s: 0, num steps: 0
lat: 0.0,long: 0.0, M: 0,D: 0,H: 0,m: 0,s: 0, num steps: 0
lat: 0.0,long: 0.0, M: 0,D: 0,H: 0,m: 0,s: 0, num steps: 0

lat: 0.0,long: 0.0, M: 0,D: 0,H: 0,m: 0,s: 0, num steps: 1
lat: 0.0,long: 0.0, M: 0,D: 0,H: 0,m: 0,s: 0, num steps: 6
lat: 0.0,long: 0.0, M: 0,D: 0,H: 0,m: 0,s: 0, num steps: 8
lat: 0.0,long: 0.0, M: 0,D: 0,H: 0,m: 0,s: 0, num steps: 8
lat: 0.0,long: 0.0, M: 0,D: 0,H: 0,m: 0,s: 0, num steps: 0
lat: 0.0,long: 0.0, M: 0,D: 0,H: 0,m: 0,s: 0, num steps: 0
lat: 0.0,long: 0.0, M: 0,D: 0,H: 0,m: 0,s: 0, num steps: 0
lat: 0.0,long: 0.0, M: 0,D: 0,H: 0,m: 0,s: 0, num steps: 0
lat: 0.0,long: 0.0, M: 0,D: 0,H: 0,m: 0,s: 0, num steps: 0
lat: 0.0,long: 0.0, M: 0,D: 0,H: 0,m: 0,s: 0, num steps: 0
lat: 0.0,long: 0.0, M: 0,D: 0,H: 0,m: 0,s: 0, num steps: 0
lat: 0.0,long: 0.0, M: 0,D: 0,H: 0,m: 0,s: 0, num steps: 0
lat: 0.0,long: 0.0, M: 0,D: 0,H: 0,m: 0,s: 0, num steps: 0
lat: 0.0,long: 0.0, M: 0,D: 0,H: 0,m: 0,s: 0, num steps: 0
lat: 0.0,long: 0.0, M: 0,D: 0,H: 0,m: 0,s: 0, num steps: 0
lat: 0.0,long: 0.0, M: 0,D: 0,H: 0,m: 0,s: 0, num steps: 0
lat: 0.0,long: 0.0, M: 0,D: 0,H: 0,m: 0,s: 0, num steps: 0
lat: 0.0,long: 0.0, M: 0,D: 0,H: 0,m: 0,s: 0, num steps: 0
lat: 0.0,long: 0.0, M: 0,D: 0,H: 0,m: 0,s: 0, num steps: 0
lat: 0.0,long: 0.0, M: 0,D: 0,H: 0,m: 0,s: 0, num steps: 0

lat: 0.0,long: 0.0, M: 0,D: 0,H: 0,m: 0,s: 0, num steps: 3
lat: 0.0,long: 0.0, M: 0,D: 0,H: 0,m: 0,s: 0, num steps: 9
lat: 0.0,long: 0.0, M: 0,D: 0,H: 0,m: 0,s: 0, num steps: 7
lat: 0.0,long: 0.0, M: 0,D: 0,H: 0,m: 0,s: 0, num steps: 1
lat: 0.0,long: 0.0, M: 0,D: 0,H: 0,m: 0,s: 0, num steps: 3
lat: 0.0,long: 0.0, M: 0,D: 0,H: 0,m: 0,s: 0, num steps: 0
lat: 0.0,long: 0.0, M: 0,D: 0,H: 0,m: 0,s: 0, num steps: 0
lat: 0.0,long: 0.0, M: 0,D: 0,H: 0,m: 0,s: 0, num steps: 0
lat: 0.0,long: 0.0, M: 0,D: 0,H: 0,m: 0,s: 0, num steps: 0
lat: 0.0,long: 0.0, M: 0,D: 0,H: 0,m: 0,s: 0, num steps: 0
lat: 0.0,long: 0.0, M: 0,D: 0,H: 0,m: 0,s: 0, num steps: 0
lat: 0.0,long: 0.0, M: 0,D: 0,H: 0,m: 0,s: 0, num steps: 0
lat: 0.0,long: 0.0, M: 0,D: 0,H: 0,m: 0,s: 0, num steps: 0
lat: 0.0,long: 0.0, M: 0,D: 0,H: 0,m: 0,s: 0, num steps: 0
lat: 0.0,long: 0.0, M: 0,D: 0,H: 0,m: 0,s: 0, num steps: 0
lat: 0.0,long: 0.0, M: 0,D: 0,H: 0,m: 0,s: 0, num steps: 0
lat: 0.0,long: 0.0, M: 0,D: 0,H: 0,m: 0,s: 0, num steps: 0
lat: 0.0,long: 0.0, M: 0,D: 0,H: 0,m: 0,s: 0, num steps: 0
lat: 0.0,long: 0.0, M: 0,D: 0,H: 0,m: 0,s: 0, num steps: 0
lat: 0.0,long: 0.0, M: 0,D: 0,H: 0,m: 0,s: 0, num steps: 0

